5B ELO Calculations
…
  # IMPROVED REGEX for points: Look for any digits and a decimal between pipes
  total_points = as.numeric(str_extract(row1, "(?<=\\|)\\s*\\d+\\.\\d\\s*(?=\\|)")),
  
  # Pulling the Pre-Rating
  pre_rating = as.numeric(str_extract(row2, "(?<=R: )\\s*\\d+")),
  
  # Extracting opponent IDs
  opponents = str_extract_all(row1, "(?<=[WLD]  )\\s*\\d+")
)

# Preview the data
print(chess_df)

# A tibble: 64 × 5
   player_id player_name         total_points pre_rating opponents
       <dbl> <chr>                      <dbl>      <dbl> <list>   
 1         1 GARY HUA                     6         1794 <chr [7]>
 2         2 DAKSHESH DARURI              6         1553 <chr [7]>
 3         3 ADITYA BAJAJ                 6         1384 <chr [7]>
 4         4 PATRICK H SCHILLING          5.5       1716 <chr [7]>
 5         5 HANSHI ZUO                   5.5       1655 <chr [7]>
 6         6 HANSEN SONG                  5         1686 <chr [7]>
 7         7 GARY DEE SWATHELL            5         1649 <chr [7]>
 8         8 EZEKIEL HOUGHTON             5         1641 <chr [7]>
 9         9 STEFANO LEE                  5         1411 <chr [7]>
10        10 ANVIT RAO                    5         1365 <chr [7]>
# ℹ 54 more rows
…
    # Apply your Elo Formula to each opponent rating
    expected_score = sum(1 / (1 + 10^((unlist(opp_ratings) - pre_rating) / 400)), na.rm = TRUE),
    
    # Calculate the Difference (The "Performance" Metric)
    performance_delta = total_points - expected_score
  ) %>%
  ungroup()

# View the results
print(chess_analysis %>% select(player_name, total_points, expected_score, performance_delta))

# A tibble: 64 × 4
   player_name         total_points expected_score performance_delta
   <chr>                      <dbl>          <dbl>             <dbl>
 1 GARY HUA                     6             5.16            0.838 
 2 DAKSHESH DARURI              6             3.78            2.22  
 3 ADITYA BAJAJ                 6             1.95            4.05  
 4 PATRICK H SCHILLING          5.5           4.74            0.758 
 5 HANSHI ZUO                   5.5           4.38            1.12  
 6 HANSEN SONG                  5             4.94            0.0554
 7 GARY DEE SWATHELL            5             4.58            0.419 
 8 EZEKIEL HOUGHTON             5             5.03           -0.0343
 9 STEFANO LEE                  5             2.29            2.71  
10 ANVIT RAO                    5             1.94            3.06  
# ℹ 54 more rows
…
